{
  "project_info": {
    "project_number": "484871041000",
    "project_id": "tresorshautdefrance",
    "storage_bucket": "tresorshautdefrance.appspot.com"
  },
  "client": [
    {
      "client_info": {
        "mobilesdk_app_id": "1:484871041000:android:2a0708cefe0eacca4cfe5d",
        "android_client_info": {
          "package_name": "com.example.thdf"
        }
      },
      "oauth_client": [
        {
          "client_id": "484871041000-3eag6436go46kovecs4n9h7lb2eqjq7o.apps.googleusercontent.com",
          "client_type": 3
        }
      ],
      "api_key": [
        {
          "current_key": "AIzaSyBzOTx2Ll7XekxHenLeyaVcttPlXfCYnd0"
        }
      ],
      "services": {
        "appinvite_service": {
          "other_platform_oauth_client": [
            {
              "client_id": "484871041000-3eag6436go46kovecs4n9h7lb2eqjq7o.apps.googleusercontent.com",
              "client_type": 3
            }
          ]
        }
      }
    }
  ],
  "configuration_version": "1"
}